reshape.knit
…
pivot_longer()       df_covid19_100       .

df_wider <- df_covid19_100 |> 
  select(date, location, total_cases, new_cases, total_deaths, new_deaths)

df_wider

## # A tibble: 707 x 6
##    date       location   total_cases new_cases total_deaths new_deaths
##    <date>     <fct>            <dbl>     <dbl>        <dbl>      <dbl>
##  1 2022-01-18       10446204     26951       234504        317
##  2 2022-01-18         91658433    572629      1278156       1287
##  3 2022-01-18          107865438   1520977      1582414       3851
##  4 2022-01-18           79545882   1185873      1257391       2936
##  5 2022-01-18      2128565     85220         5163         70
##  6 2022-01-18           43721308    369086      1199893        828
##  7 2022-01-18             705902      5800         6452         74
##  8 2022-01-19       10481433     35229       234734        230
##  9 2022-01-19         92507804    849371      1279360       1204
## 10 2022-01-19          109463174   1597736      1585693       3279
## # ... with 697 more rows

               .     ,      ,         .

df_wider |> 
  pivot_longer(cols = c('total_cases', 'new_cases', 'total_deaths', 'new_deaths'))

## # A tibble: 2,828 x 4
##    date       location name             value
##    <date>     <fct>    <chr>            <dbl>
##  1 2022-01-18  total_cases   10446204
##  2 2022-01-18  new_cases        26951
##  3 2022-01-18  total_deaths    234504
##  4 2022-01-18  new_deaths         317
##  5 2022-01-18    total_cases   91658433
##  6 2022-01-18    new_cases       572629
##  7 2022-01-18    total_deaths   1278156
##  8 2022-01-18    new_deaths        1287
##  9 2022-01-18      total_cases  107865438
## 10 2022-01-18      new_cases      1520977
## # ... with 2,818 more rows

df_wider |> pivot_longer(c(3, 4, 5, 6), names_to = '', values_to = 'persons')

## # A tibble: 2,828 x 4
##    date       location            persons
##    <date>     <fct>    <chr>            <dbl>
##  1 2022-01-18  total_cases   10446204
##  2 2022-01-18  new_cases        26951
##  3 2022-01-18  total_deaths    234504
##  4 2022-01-18  new_deaths         317
##  5 2022-01-18    total_cases   91658433
##  6 2022-01-18    new_cases       572629
##  7 2022-01-18    total_deaths   1278156
##  8 2022-01-18    new_deaths        1287
##  9 2022-01-18      total_cases  107865438
## 10 2022-01-18      new_cases      1520977
## # ... with 2,818 more rows

df_wider |> pivot_longer(3:6, names_to = '', values_to = 'persons')

## # A tibble: 2,828 x 4
##    date       location            persons
##    <date>     <fct>    <chr>            <dbl>
##  1 2022-01-18  total_cases   10446204
##  2 2022-01-18  new_cases        26951
##  3 2022-01-18  total_deaths    234504
##  4 2022-01-18  new_deaths         317
##  5 2022-01-18    total_cases   91658433
##  6 2022-01-18    new_cases       572629
##  7 2022-01-18    total_deaths   1278156
##  8 2022-01-18    new_deaths        1287
##  9 2022-01-18      total_cases  107865438
## 10 2022-01-18      new_cases      1520977
## # ... with 2,818 more rows
…
pivot_wider()       df_covid19_100       .

df_longer <- df_covid19_100 |> 
  select(date, location, total_cases)

df_longer

## # A tibble: 707 x 3
##    date       location   total_cases
##    <date>     <fct>            <dbl>
##  1 2022-01-18       10446204
##  2 2022-01-18         91658433
##  3 2022-01-18          107865438
##  4 2022-01-18           79545882
##  5 2022-01-18      2128565
##  6 2022-01-18           43721308
##  7 2022-01-18             705902
##  8 2022-01-19       10481433
##  9 2022-01-19         92507804
## 10 2022-01-19          109463174
## # ... with 697 more rows

                     total_cases     .

df_longer |> 
  pivot_wider(names_from = location, values_from = total_cases) 

## # A tibble: 101 x 8
##    date                              
##    <date>        <dbl>    <dbl>     <dbl>    <dbl>      <dbl>    <dbl>  <dbl>
##  1 2022-01-18 10446204 91658433 107865438 79545882    2128565 43721308 705902
##  2 2022-01-19 10481433 92507804 109463174 80623224    2197384 44181939 712503
##  3 2022-01-20 10530788 93222825 111090014 81419617    2261818 44635486 719269
##  4 2022-01-21 10568210 93942144 112691756 82422002    2306022 45066178 726274
##  5 2022-01-22 10609278 94623085 113970416 82756200    2373663 45452780 733902
##  6 2022-01-23 10625760 95222958 115002903 83227036    2406091 45757226 741413
##  7 2022-01-24 10652684 95977454 116321732 84197652    2466338 46048605 749979
##  8 2022-01-25 10708754 96687023 118127733 84805519    2520592 46465897 762983
##  9 2022-01-26 10742258 97439805 119899381 85479827    2572899 46843672 777497
## 10 2022-01-27 10779762 98141834 121749700 86093967    2640481 47328453 793582
## # ... with 91 more rows
