bubble.knit
…
     239,  ,    9  .    1         .             .

df_provinfo_21 |>
  mutate(`` =  / , 
         `` =  / ( -  - ))

## # A tibble: 239 x 11
##                      
##    <chr> <chr> <chr>         <dbl>   <dbl>      <dbl>        <dbl>      <dbl>
##  1 2021            33381  582572      53457         4652          2
##  2 2021         124047 2672340     191224         9566       1120
##  3 2021            53053 1350770     113238        20089       2325
##  4 2021          56245 1299965     131120        24929       1868
##  5 2021    ()      40063  961275      91448        16879       1106
##  6 2021    ()       2865   63181       8001         1181        291
##  7 2021    ()    10352  198663      24816         5734        229
##  8 2021    ()       2965   76846       6855         1135        242
##  9 2021           5105   26967      10269         2410          9
## 10 2021          5      43          5            0          0
## # ... with 229 more rows, and 3 more variables:  <dbl>,
## #    <dbl>,  <dbl>
…
